Cafe du mRcredi 01
…
Babynames

Jettons dabord un coup dil aux donnes, cest quand mme la base dune analyse.

babynames

## # A tibble: 1,825,433 x 5
##     year   sex      name     n       prop
##    <dbl> <chr>     <chr> <int>      <dbl>
## 1   1880     F      Mary  7065 0.07238359
## 2   1880     F      Anna  2604 0.02667896
## 3   1880     F      Emma  2003 0.02052149
## 4   1880     F Elizabeth  1939 0.01986579
## 5   1880     F    Minnie  1746 0.01788843
## 6   1880     F  Margaret  1578 0.01616720
## 7   1880     F       Ida  1472 0.01508119
## 8   1880     F     Alice  1414 0.01448696
## 9   1880     F    Bertha  1320 0.01352390
## 10  1880     F     Sarah  1288 0.01319605
## # ... with 1,825,423 more rows

Il y a donc cinq colonnes, qui correspondent  lanne, au sexe, au prnom, au nombre denfants du sexe donn qui ont t baptiss ainsi au cours de lanne, et la proportion des enfants baptiss par ce nom pour cet anne et pour ce sexe.

dplyr::filter

La premire fonction qui va nous intresser est la fonction filter. Elle permet de filtrer des lignes en fonction de conditions qui nous intressent.

Par exemple, pour ne garder que les lignes o la colonne n prend une valeur suprieure  10000 :

filter(.data = babynames, n > 1e4)

## # A tibble: 5,730 x 5
##     year   sex  name     n       prop
##    <dbl> <chr> <chr> <int>      <dbl>
## 1   1888     F  Mary 11754 0.06204276
## 2   1889     F  Mary 11648 0.06155830
## 3   1890     F  Mary 12078 0.05989230
## 4   1891     F  Mary 11703 0.05953695
## 5   1892     F  Mary 13173 0.05856749
## 6   1893     F  Mary 12784 0.05675900
## 7   1894     F  Mary 13151 0.05573119
## 8   1895     F  Mary 13446 0.05441323
## 9   1896     F  Mary 13811 0.05480664
## 10  1897     F  Mary 13413 0.05402434
## # ... with 5,720 more rows

Pour ne garder que les lignes o la colonne name prend la valeur "Laura" :

filter(.data = babynames, name == "Laura")

## # A tibble: 246 x 5
##     year   sex  name     n         prop
##    <dbl> <chr> <chr> <int>        <dbl>
## 1   1880     F Laura  1012 1.036832e-02
## 2   1881     F Laura   962 9.731326e-03
## 3   1882     F Laura  1151 9.948314e-03
## 4   1882     M Laura     5 4.097252e-05
## 5   1883     F Laura  1183 9.853078e-03
## 6   1884     F Laura  1246 9.056022e-03
## 7   1885     F Laura  1325 9.334273e-03
## 8   1886     F Laura  1372 8.924274e-03
## 9   1886     M Laura     5 4.200234e-05
## 10  1887     F Laura  1364 8.776050e-03
## # ... with 236 more rows

Pour ne garder que les lignes o la colonne name prend la valeur "Laura" et o le sexe est fminin :

filter(babynames, name == "Laura", sex == "F")

## # A tibble: 135 x 5
##     year   sex  name     n        prop
##    <dbl> <chr> <chr> <int>       <dbl>
## 1   1880     F Laura  1012 0.010368321
## 2   1881     F Laura   962 0.009731326
## 3   1882     F Laura  1151 0.009948314
## 4   1883     F Laura  1183 0.009853078
## 5   1884     F Laura  1246 0.009056022
## 6   1885     F Laura  1325 0.009334273
## 7   1886     F Laura  1372 0.008924274
## 8   1887     F Laura  1364 0.008776050
## 9   1888     F Laura  1624 0.008572183
## 10  1889     F Laura  1567 0.008281409
## # ... with 125 more rows
…
mutate(df, a = 2)

## # A tibble: 3 x 2
##       a     b
##   <dbl> <dbl>
## 1     2     3
## 2     2     2
## 3     2     1

Change toutes les valeurs de la colonne name en "Laura" :

mutate(babynames, name = "Laura")

## # A tibble: 1,825,433 x 5
##     year   sex  name     n       prop
##    <dbl> <chr> <chr> <int>      <dbl>
## 1   1880     F Laura  7065 0.07238359
## 2   1880     F Laura  2604 0.02667896
## 3   1880     F Laura  2003 0.02052149
## 4   1880     F Laura  1939 0.01986579
## 5   1880     F Laura  1746 0.01788843
## 6   1880     F Laura  1578 0.01616720
## 7   1880     F Laura  1472 0.01508119
## 8   1880     F Laura  1414 0.01448696
## 9   1880     F Laura  1320 0.01352390
## 10  1880     F Laura  1288 0.01319605
## # ... with 1,825,423 more rows

Pas trs utile, mais beaucoup plus quand on peut faire des choses comme a :

mutate(babynames, name = ifelse(sex == "F", "Jeanne", "Jean"))

## # A tibble: 1,825,433 x 5
##     year   sex   name     n       prop
##    <dbl> <chr>  <chr> <int>      <dbl>
## 1   1880     F Jeanne  7065 0.07238359
## 2   1880     F Jeanne  2604 0.02667896
## 3   1880     F Jeanne  2003 0.02052149
## 4   1880     F Jeanne  1939 0.01986579
## 5   1880     F Jeanne  1746 0.01788843
## 6   1880     F Jeanne  1578 0.01616720
## 7   1880     F Jeanne  1472 0.01508119
## 8   1880     F Jeanne  1414 0.01448696
## 9   1880     F Jeanne  1320 0.01352390
## 10  1880     F Jeanne  1288 0.01319605
## # ... with 1,825,423 more rows
Autrement dit en franais, la colonne name prend la valeur Jeanne si la colonne sex est gale  F, Jean autrement.

Peut-tre que vous lavez not mais les commandes se font trs rapidement sur un gros jeu de donne, cest aussi lintrt du package dplyr (les fonctions sont codes en C++, un language de programmation trs performant).

Lautre gros intrt est que le jeu de donne initial nest jamais modifi. babynames garde les mmes valeurs. Donc on ne craint pas de perdre des donnes en rentrant une mauvaise commande.

dplyr::group_by & dplyr::summarise

Souvent en analyse de donnes, on a besoin deffectuer des commandes sur des groupes de donnes. Par exemple, pour chaque plante dans la colonne plante, calcule la longueur moyenne de racine. On peut donc grouper les donnes par valeur dans une colonne.

a se fait avec la fonction group_by et sa copine summarise.

group_by(babynames, name)

## Source: local data frame [1,825,433 x 5]
## Groups: name [93,889]
## 
##     year   sex      name     n       prop
##    <dbl> <chr>     <chr> <int>      <dbl>
## 1   1880     F      Mary  7065 0.07238359
## 2   1880     F      Anna  2604 0.02667896
## 3   1880     F      Emma  2003 0.02052149
## 4   1880     F Elizabeth  1939 0.01986579
## 5   1880     F    Minnie  1746 0.01788843
## 6   1880     F  Margaret  1578 0.01616720
## 7   1880     F       Ida  1472 0.01508119
## 8   1880     F     Alice  1414 0.01448696
## 9   1880     F    Bertha  1320 0.01352390
## 10  1880     F     Sarah  1288 0.01319605
## # ... with 1,825,423 more rows

Il ne se passe rien, sinon que le jeu de donne est dcoup en environ 90000 groupes, correspondants aux 90000 noms diffrents dans le jeu de donne.

Maintenant, si on utilise la fonction summarise (ou summarize, cest au choix) sur ce jeu dcoup en groupes :

summarise(group_by(babynames, name), sum_par_prenom = sum(n))

## # A tibble: 93,889 x 2
##         name sum_par_prenom
##        <chr>          <int>
## 1      Aaban             72
## 2      Aabha             21
## 3      Aabid              5
## 4  Aabriella             10
## 5      Aadam            196
## 6      Aadan            112
## 7    Aadarsh            158
## 8      Aaden           3920
## 9     Aadesh             15
## 10    Aadhav            102
## # ... with 93,879 more rows

Notez quil ne peut pas y avoir despace dans les noms de colonne, donc on utilise le _, lun des seuls symbole neutre qui nait pas de valeur dans R.

En franais, la commande prcdente veut dire : par nom, calcule la somme des n, autrement dit compte le nombre dinvididus portant un nom donn dans le dataset.

Peut-tre que vous avez vu quon pouvait enchsser des fonctions les unes dans les autres. (Cest une particularit des languages dits fonctionnels, dont R fait partie). Par exemple dans la commande prcdente, largument .data = prenait la valeur renvoye par lapplication de la fonction group_by(babynames, name).

summarise(group_by(babynames, year), individus_comptes_par_annee = sum(n))

## # A tibble: 135 x 2
##     year individus_comptes_par_annee
##    <dbl>                       <int>
## 1   1880                      201484
## 2   1881                      192699
## 3   1882                      221538
## 4   1883                      216950
## 5   1884                      243467
## 6   1885                      240855
## 7   1886                      255319
## 8   1887                      247396
## 9   1888                      299480
## 10  1889                      288950
## # ... with 125 more rows

En franais, compte le nombre dindividus recenss par anne.

Souvent, on veut compter le nombre de lignes dans un groupe. On peut utiliser la fonction n(). Exemple :

summarise(group_by(babynames, year), prenoms_different_par_annee = n())

## # A tibble: 135 x 2
##     year prenoms_different_par_annee
##    <dbl>                       <int>
## 1   1880                        2000
## 2   1881                        1935
## 3   1882                        2127
## 4   1883                        2084
## 5   1884                        2297
## 6   1885                        2294
## 7   1886                        2392
## 8   1887                        2373
## 9   1888                        2651
## 10  1889                        2590
## # ... with 125 more rows
…
On peut donc utiliser loprateur %>% !

foo_foo %>%
  cours(a_travers = la_foret) %>%
  attrape(quoi = les_souris) %>%
  ecrase(quel_organe = leur_tete)

Si on revient  nos exemples dans le monde pseudo-rel :

On peut remplacer :

summarise(group_by(babynames, year), count = n())

## # A tibble: 135 x 2
##     year count
##    <dbl> <int>
## 1   1880  2000
## 2   1881  1935
## 3   1882  2127
## 4   1883  2084
## 5   1884  2297
## 6   1885  2294
## 7   1886  2392
## 8   1887  2373
## 9   1888  2651
## 10  1889  2590
## # ... with 125 more rows

Par :

babynames %>%
  group_by(year) %>%
  summarise(count = n())

## # A tibble: 135 x 2
##     year count
##    <dbl> <int>
## 1   1880  2000
## 2   1881  1935
## 3   1882  2127
## 4   1883  2084
## 5   1884  2297
## 6   1885  2294
## 7   1886  2392
## 8   1887  2373
## 9   1888  2651
## 10  1889  2590
## # ... with 125 more rows
Loprateur %>% permet de remplacer le premier argument de la fonction suivante par la valeur renvoye par la fonction prcdente.

Dans dplyr, toutes les fonctions acceptent pour premier argument largument .data, ce qui nous permet facilement de mettre les fonctions les unes  la suite des autres.

Premiers graphiques !

On en tait il y a quelque temps  se dire quon ferait bien quelques graphiques sur nos donnes manipules.

Exemple :

babynames %>%
  group_by(year) %>%
  summarise(count = n())

## # A tibble: 135 x 2
##     year count
##    <dbl> <int>
## 1   1880  2000
## 2   1881  1935
## 3   1882  2127
## 4   1883  2084
## 5   1884  2297
## 6   1885  2294
## 7   1886  2392
## 8   1887  2373
## 9   1888  2651
## 10  1889  2590
## # ... with 125 more rows
…
