Importer ses données et les nettoyer
…
Maintenant importons la table experimental_id, que j’ai volontairement exporté depuis Excel avec des paramètres pas très pertinents.

Vu que c’est censé être un fichier csv (Comma Separated Value, le standard que VOUS DEVEZ absolument utiliser), les champs sont censés être séparés par des fucking virgule. Mais Excel, dans sa grande mansuétude, utilise parfois des fucking point-virgule. Donc si on fait simplement read_csv() :

read_csv(file = metadata_file)

## # A tibble: 61 × 1
##                `sample;exp;type;date;fake_column`
##                                             <chr>
## 1   FLKJ;BAC555-8;bac;"Sunday; January 1; 2017";1
## 2   FLKK;BAC555-2;bac;"Monday; January 2; 2017";1
## 3   FLOI;TC-1_10;tc1;"Tuesday; January 3; 2017";1
## 4  FLOJ;TC-2_5;tc1;"Wednesday; January 4; 2017";1
## 5   FLOK;TC-2_8;tc1;"Thursday; January 5; 2017";1
## 6     FLOL;TC-1_9;tc1;"Friday; January 6; 2017";1
## 7   FLOM;TC-1_1;tc1;"Saturday; January 7; 2017";1
## 8     FLON;TC-1_5;tc1;"Sunday; January 8; 2017";1
## 9    FLOO;TC-2_10;tc1;"Monday; January 9; 2017";2
## 10  FLOP;TC-2_1;tc1;"Tuesday; January 10; 2017";2
## # ... with 51 more rows

Ça ne marche pas. Donc là on rage, on ferme R et on jure de ne plus jamais mettre les pieds dans une console de RStudio.

L’alternative, c’est d’utiliser read_delim() bien sagement, en indiquant à R en quoi Excel est bête :

read_delim(
  file = metadata_file, # où est le fichier ?
  delim = ";", # quel est le caractère qui délimite les champs ?
  locale = locale(decimal_mark = ",") # quel est le caractère qui sépare les
  # entières des décimales
)

## # A tibble: 61 × 5
##    sample      exp  type                       date fake_column
##     <chr>    <chr> <chr>                      <chr>       <dbl>
## 1    FLKJ BAC555-8   bac    Sunday; January 1; 2017         1.2
## 2    FLKK BAC555-2   bac    Monday; January 2; 2017         1.3
## 3    FLOI  TC-1_10   tc1   Tuesday; January 3; 2017         1.4
## 4    FLOJ   TC-2_5   tc1 Wednesday; January 4; 2017         1.5
## 5    FLOK   TC-2_8   tc1  Thursday; January 5; 2017         1.6
## 6    FLOL   TC-1_9   tc1    Friday; January 6; 2017         1.7
## 7    FLOM   TC-1_1   tc1  Saturday; January 7; 2017         1.8
## 8    FLON   TC-1_5   tc1    Sunday; January 8; 2017         1.9
## 9    FLOO  TC-2_10   tc1    Monday; January 9; 2017         2.0
## 10   FLOP   TC-2_1   tc1  Tuesday; January 10; 2017         2.1
## # ... with 51 more rows
…
## [1] NA

unique(df$qual)

## [1] 40

Idem pour ces trois là.

On va les supprimer du jeu de donnée via la fonction select() du package dplyr inclus dans le tidyverse.

df %>%
  select(-x_chrom, -format, -info, -qual)

## # A tibble: 2,000 × 68
##        pos                    id   ref   alt filter receiver donor  flkj
##      <int>                 <chr> <chr> <chr>  <chr>    <int> <int> <int>
## 1   422088 GGGTGAATTA.CAAAAATCAA     C     T   PASS        0     1     0
## 2   689272 ATAAAAGCCC.TACTTATAAT     T     C   PASS        0     1     0
## 3  1454616 GTTTAATCAA.ACCTTTTAAT     A     C   PASS        0     1     0
## 4   513946 CACAAGCGCA.ATTACCCAAA     A     G    LCB        0     1     0
## 5   324689 GAGACAAAAC.CCTTTATACT     C     G   PASS        0     1     0
## 6  1172672 CAAGGTCAAA.AACCAAAATT     A     G   PASS        0     1     0
## 7  1536121 TAATAAAATC.TTTTAAATCC     T     C   PASS        0     1     0
## 8  1466799 TCTTGCTGTC.TGCGCGATAA     T     G   PASS        0     1     0
## 9   727771 AGCCCACGAA.CGATGAAAGC     C     T   PASS        0     1     0
## 10  836645 CCAAAGAAGG.CATTTTCCCT     C     G   PASS        0     1     0
## # ... with 1,990 more rows, and 60 more variables: flkk <int>, floi <int>,
## #   floj <int>, flok <int>, flol <int>, flom <int>, flon <int>,
## #   floo <int>, flop <int>, floq <int>, flor <int>, flos <int>,
## #   flot <int>, flou <int>, flov <int>, flow <int>, flox <int>,
## #   floy <int>, floz <int>, flpa <int>, flpb <int>, flpc <int>,
## #   flpd <int>, flpe <int>, flpf <int>, flpg <int>, flph <int>,
## #   flpi <int>, flpj <int>, flpk <int>, flpl <int>, flpm <int>,
## #   flpn <int>, flpo <int>, flpp <int>, flpq <int>, flpr <int>,
## #   flps <int>, flpt <int>, flpu <int>, flpv <int>, flpw <int>,
…
Maintenant revenons à nos données df.

df %>%
  gather(key = sample, value = genotype, -pos, -id, -ref, -alt, -filter)

## # A tibble: 126,000 × 7
##        pos                    id   ref   alt filter   sample genotype
##      <int>                 <chr> <chr> <chr>  <chr>    <chr>    <int>
## 1   422088 GGGTGAATTA.CAAAAATCAA     C     T   PASS receiver        0
## 2   689272 ATAAAAGCCC.TACTTATAAT     T     C   PASS receiver        0
## 3  1454616 GTTTAATCAA.ACCTTTTAAT     A     C   PASS receiver        0
## 4   513946 CACAAGCGCA.ATTACCCAAA     A     G    LCB receiver        0
## 5   324689 GAGACAAAAC.CCTTTATACT     C     G   PASS receiver        0
## 6  1172672 CAAGGTCAAA.AACCAAAATT     A     G   PASS receiver        0
## 7  1536121 TAATAAAATC.TTTTAAATCC     T     C   PASS receiver        0
## 8  1466799 TCTTGCTGTC.TGCGCGATAA     T     G   PASS receiver        0
## 9   727771 AGCCCACGAA.CGATGAAAGC     C     T   PASS receiver        0
## 10  836645 CCAAAGAAGG.CATTTTCCCT     C     G   PASS receiver        0
## # ... with 125,990 more rows
…
Ça marche pas. Parce que R est sensible à la casse (minuscules / MAJUSCULES).

Il faut donc qu’on change la colonne sample de la table meta_df. On pourrait le faire à part, mais pourquoi se compliquer la vie à créer un nouvel objet ? On peut directement faire appel à la fonction mutate au sein de l’appel à inner_join(). Oui, c’est un poil compliqué, mais c’est fait exprès.

inner_join(
  x = df, # la première table
  # tolower veut dire "conversion en minuscules"
  y = mutate(meta_df, sample = tolower(sample)),
  # par quelle colonne faire le joint ?
  by = "sample"
)

## # A tibble: 122,000 × 11
##        pos                    id   ref   alt filter sample genotype
##      <int>                 <chr> <chr> <chr>  <chr>  <chr>    <int>
## 1   422088 GGGTGAATTA.CAAAAATCAA     C     T   PASS   flkj        0
## 2   689272 ATAAAAGCCC.TACTTATAAT     T     C   PASS   flkj        0
## 3  1454616 GTTTAATCAA.ACCTTTTAAT     A     C   PASS   flkj        0
## 4   513946 CACAAGCGCA.ATTACCCAAA     A     G    LCB   flkj        0
## 5   324689 GAGACAAAAC.CCTTTATACT     C     G   PASS   flkj        0
## 6  1172672 CAAGGTCAAA.AACCAAAATT     A     G   PASS   flkj        0
## 7  1536121 TAATAAAATC.TTTTAAATCC     T     C   PASS   flkj        0
## 8  1466799 TCTTGCTGTC.TGCGCGATAA     T     G   PASS   flkj        0
## 9   727771 AGCCCACGAA.CGATGAAAGC     C     T   PASS   flkj        0
## 10  836645 CCAAAGAAGG.CATTTTCCCT     C     G   PASS   flkj        0
## # ... with 121,990 more rows, and 4 more variables: exp <chr>, type <chr>,
## #   date <chr>, fake_column <dbl>
…
